<svg xmlns="http://www.w3.org/2000/svg" width="50" height="50" viewBox="0 0 50 50">
  <g id="Approved" transform="translate(-247 -185)">
    <circle id="Ellipse_228" data-name="Ellipse 228" cx="25" cy="25" r="25" transform="translate(247 185)" fill="#66b92e"/>
    <g id="Group_2815" data-name="Group 2815" transform="translate(256 194)">
      <path id="Path_12770" data-name="Path 12770" d="M178.366,907.662l-3.138-3.138-1.935,1.935,5.073,5.074,13.284-13.285-1.935-1.935Z" transform="translate(-166.049 -887.701)" fill="#fff"/>
      <path id="Path_12771" data-name="Path 12771" d="M184.423,890.02a16.423,16.423,0,1,0,16.423,16.423A16.441,16.441,0,0,0,184.423,890.02Zm0,30.108a13.686,13.686,0,1,1,13.685-13.686A13.7,13.7,0,0,1,184.423,920.128Z" transform="translate(-168 -890.02)" fill="#fff"/>
    </g>
  </g>
</svg>
