<?xml version="1.0"?>
<svg xmlns="http://www.w3.org/2000/svg" xmlns:xlink="http://www.w3.org/1999/xlink" version="1.1" id="Capa_1" x="0px" y="0px" viewBox="0 0 341.333 341.333" style="enable-background:new 0 0 341.333 341.333;" xml:space="preserve" width="512px" height="512px" class=""><g><g>
	<g>
		<path d="M170.667,0C76.41,0,0,76.41,0,170.667s76.41,170.667,170.667,170.667s170.667-76.41,170.667-170.667S264.923,0,170.667,0z     M170.667,298.667c-70.692,0-128-57.308-128-128s57.308-128,128-128s128,57.308,128,128S241.359,298.667,170.667,298.667z" data-original="#000000" class="active-path" data-old_color="#000000" fill="#1273EB"/>
	</g>
</g></g> </svg>
