<svg xmlns="http://www.w3.org/2000/svg" width="132" height="55.5" viewBox="0 0 132 55.5">
  <g id="Inner_Page_Logo" data-name="Inner Page_Logo" transform="translate(-114 71.05)">
    <g id="Group_2786" data-name="Group 2786" transform="translate(125.809 -71.05)">
      <path id="Path_12714" data-name="Path 12714" d="M-267.462,203.867a7.069,7.069,0,0,1-1.793-9.072c2.934-5.541,5.921-8.04,3.911-13.581,0,0,4.09,3.569,2.01,8.529C-265.7,195.379-270.668,195.719-267.462,203.867Z" transform="translate(270.765 -174.679)" fill="#74329c"/>
      <circle id="Ellipse_151" data-name="Ellipse 151" cx="1.658" cy="1.658" r="1.658" transform="translate(0 12.78)" fill="#74329c"/>
      <path id="Path_12715" data-name="Path 12715" d="M-208.8,207.506a1.658,1.658,0,0,1-1.658,1.658,1.658,1.658,0,0,1-1.658-1.658,1.658,1.658,0,0,1,1.658-1.658A1.658,1.658,0,0,1-208.8,207.506Z" transform="translate(227.395 -193.068)" fill="#74329c"/>
      <path id="Path_12716" data-name="Path 12716" d="M-248.623,155.436l2.189,1.842,2.392-1.569-1.075,2.651,2.232,1.79-2.854-.2-1.013,2.676-.688-2.777-2.858-.137,2.428-1.513Z" transform="translate(255.897 -155.436)" fill="#74329c"/>
      <path id="Path_12717" data-name="Path 12717" d="M-256.909,238.347s-4.971-5.134,1.833-12.454C-255.075,225.893-259.231,231.807-256.909,238.347Z" transform="translate(262.14 -208.031)" fill="#74329c"/>
      <path id="Path_12718" data-name="Path 12718" d="M-226.854,203.867a7.069,7.069,0,0,0,1.793-9.072c-2.934-5.541-5.921-8.04-3.911-13.581,0,0-4.089,3.569-2.01,8.529C-228.619,195.379-223.649,195.719-226.854,203.867Z" transform="translate(241.918 -174.679)" fill="#74329c"/>
      <path id="Path_12719" data-name="Path 12719" d="M-225.967,238.347s4.971-5.134-1.833-12.454C-227.8,225.893-223.644,231.807-225.967,238.347Z" transform="translate(239.103 -208.031)" fill="#74329c"/>
    </g>
    <text id="ul" transform="translate(114 -24.55)" fill="#242021" font-size="30" font-family="HKGrotesk-Medium, HK Grotesk" font-weight="500"><tspan x="0" y="0">ul</tspan></text>
    <text id="rewards" transform="translate(142 -25.55)" fill="#3d358f" font-size="29" font-family="HKGrotesk-Medium, HK Grotesk" font-weight="500"><tspan x="0" y="0">rewards</tspan></text>
  </g>
</svg>
